br/com/tech/brtechmeubairroepidemio/impl/NeighborhoodService.class
br/com/tech/brtechmeubairroepidemio/impl/model/Neighborhood$NeighborhoodBuilder.class
br/com/tech/brtechmeubairroepidemio/contract/model/Neighborhood$NeighborhoodBuilder.class
br/com/tech/brtechmeubairroepidemio/impl/model/Neighborhood.class
br/com/tech/brtechmeubairroepidemio/BrtechmeubairroepidemioApplication.class
br/com/tech/brtechmeubairroepidemio/contract/NeighborhoodFacade.class
br/com/tech/brtechmeubairroepidemio/contract/model/Neighborhood.class
br/com/tech/brtechmeubairroepidemio/configuration/WebConfig.class
br/com/tech/brtechmeubairroepidemio/integration/model/Neighborhood.class
br/com/tech/brtechmeubairroepidemio/integration/model/Neighborhood$NeighborhoodBuilder.class
br/com/tech/brtechmeubairroepidemio/contract/NeighborhoodController.class
br/com/tech/brtechmeubairroepidemio/integration/entity/NeighborhoodEntity.class
br/com/tech/brtechmeubairroepidemio/integration/NeighborhoodRepository.class
br/com/tech/brtechmeubairroepidemio/integration/entity/NeighborhoodEntity$NeighborhoodEntityBuilder.class
br/com/tech/brtechmeubairroepidemio/integration/SqlProvider.class
